/Users/josephryu/repos/beier/beierrtanalysis/src/main/java/rtExcelParser/BaseRTExcelParser.java
/Users/josephryu/repos/beier/beierrtanalysis/src/main/java/model/BaseRTData.java
/Users/josephryu/repos/beier/beierrtanalysis/src/main/java/rtExcelWriter/RTExcelWriter.java
/Users/josephryu/repos/beier/beierrtanalysis/src/main/java/rtExcelParser/BioRadCFX96RTExcelParser.java
/Users/josephryu/repos/beier/beierrtanalysis/src/main/java/rtAnalyzer/RTAnalyzer.java
/Users/josephryu/repos/beier/beierrtanalysis/src/main/java/main/Main.java
/Users/josephryu/repos/beier/beierrtanalysis/src/main/java/rtAnalyzer/RTTransformer.java
/Users/josephryu/repos/beier/beierrtanalysis/src/main/java/model/bioradCF96/BioRadCF96RawRTData.java
/Users/josephryu/repos/beier/beierrtanalysis/src/main/java/model/AnalyzedRTData.java
